…
<img src="1-protein_db_broad_files/figure-gfm/plot_RNAseq-1.png" style="display: block; margin: auto;" />

Consistency between samples looks good. Calculate mean values.

``` r
salmon.results %>% 
  unnest(salmon) %>%
  group_by(Name) %>% 
  summarise(TPM = mean(TPM)) %>% 
  transmute(ensembl_id = str_remove_all(Name, "\\.\\d+"), TPM = TPM) -> rna.expression

rna.expression
```

    ## # A tibble: 95,309 × 2
    ##    ensembl_id                                                                TPM
    ##    <chr>                                                                   <dbl>
    ##  1 ENST00000000233|ENSG00000004059|OTTHUMG00000023246|OTTHUMT0000005956… 123.   
    ##  2 ENST00000000412|ENSG00000003056|OTTHUMG00000168276|OTTHUMT0000039913…  71.8  
    ##  3 ENST00000000442|ENSG00000173153|OTTHUMG00000150641|OTTHUMT0000031930…   0.793
    ##  4 ENST00000001008|ENSG00000004478|OTTHUMG00000090429|OTTHUMT0000020686…  84.7  
    ##  5 ENST00000001146|ENSG00000003137|OTTHUMG00000129756|OTTHUMT0000025196…   0    
    ##  6 ENST00000002125|ENSG00000003509|OTTHUMG00000128468|OTTHUMT0000025026…  17.1  
    ##  7 ENST00000002165|ENSG00000001036|OTTHUMG00000015728|OTTHUMT0000004252…  38.1  
    ##  8 ENST00000002501|ENSG00000003249|OTTHUMG00000138984|OTTHUMT0000027287…   0    
    ##  9 ENST00000002596|ENSG00000002587|OTTHUMG00000090547|OTTHUMT0000020707…   0.244
    ## 10 ENST00000002829|ENSG00000001617|OTTHUMG00000156806|OTTHUMT0000034592…   0    
    ## # … with 95,299 more rows
…
    ## 
    ## FALSE  TRUE 
    ## 32308 63001

Read conversion table, which contains Ensemble transcript and gene IDs,
and swissprot IDs.

``` r
conversion.table <- na.omit(read_tsv(here("Broad_Data", "HLA_peptidomics", "conversion.txt")))

conversion.table
```

    ## # A tibble: 46,100 × 3
    ##    `Ensembl Gene ID` `Ensembl Transcript ID` `UniProt/SwissProt Accession`
    ##    <chr>             <chr>                   <chr>                        
    ##  1 ENSG00000261530   ENST00000566356         P35070                       
    ##  2 ENSG00000260334   ENST00000561776         P01350                       
    ##  3 ENSG00000261125   ENST00000562865         P54257                       
    ##  4 ENSG00000261125   ENST00000568643         P54257                       
    ##  5 ENSG00000261125   ENST00000568276         P54257                       
    ##  6 ENSG00000261125   ENST00000568474         P54257                       
    ##  7 ENSG00000261577   ENST00000565220         P14923                       
    ##  8 ENSG00000261577   ENST00000562805         P14923                       
    ##  9 ENSG00000261577   ENST00000565780         P14923                       
    ## 10 ENSG00000261258   ENST00000568842         Q96AY3                       
    ## # … with 46,090 more rows
…
Tidy up, and add peptide lengths.

``` r
broad.HLA.data %>% 
  unnest(data) %>% 
  mutate(pep_length = str_length(sequence)) %>% 
  dplyr::rename(gene.symbol = "hg19.kgXref.geneSymbol") -> broad.HLA.data

broad.HLA.data
```

    ## # A tibble: 21,289 × 4
    ##    sequence     gene.symbol allele pep_length
    ##    <chr>        <chr>       <chr>       <int>
    ##  1 AFFEGPPFKFKF WDR1        A2402          12
    ##  2 AFFGDVVLRF   CCDC134     A2402          10
    ##  3 AFHPTAQLL    AMBRA1      A2402           9
    ##  4 AFIEKHWTF    CSRP2BP     A2402           9
    ##  5 AFIQKSNLI    ZNF146      A2402           9
    ##  6 AFLDKQNQVKF  ITGA4       A2402          11
    ##  7 AFLEINRQLLF  EID2B       A2402          11
    ##  8 AFLKVSSVF    RANGAP1     A2402           9
    ##  9 AFLYNDQLIW   CCZ1        A2402          10
    ## 10 AFMVNGQKF    PRC1        A2402           9
    ## # … with 21,279 more rows
…
Broad data uses gene symbols, expand the conversion table to include
those.

``` r
babelgene::orthologs(genes = na.omit(broad.HLA.data)$gene.symbol, species = "mouse", top = T) %>% 
  transmute(gene.symbol = human_symbol, ensemble_id =  human_ensembl) %>% 
  full_join(conversion.table, by = c("ensemble_id" = "Ensembl Gene ID")) %>% 
  as_tibble() -> conversion.table

conversion.table
```

    ## # A tibble: 46,466 × 4
    ##    gene.symbol ensemble_id     `Ensembl Transcript ID` `UniProt/SwissProt Acces…
    ##    <chr>       <chr>           <chr>                   <chr>                    
    ##  1 A2M         ENSG00000175899 ENST00000318602         P01023                   
    ##  2 AAAS        ENSG00000094914 ENST00000209873         Q9NRG9                   
    ##  3 AAAS        ENSG00000094914 ENST00000394384         Q9NRG9                   
    ##  4 AACS        ENSG00000081760 ENST00000316519         Q86V21                   
    ##  5 AACS        ENSG00000081760 ENST00000316543         Q86V21                   
    ##  6 AACS        ENSG00000081760 ENST00000261686         Q86V21                   
    ##  7 AAGAB       ENSG00000103591 ENST00000261880         Q6PD74                   
    ##  8 AAK1        ENSG00000115977 ENST00000409085         Q2M2I8                   
    ##  9 AAK1        ENSG00000115977 ENST00000406297         Q2M2I8                   
    ## 10 AAMP        ENSG00000127837 ENST00000248450         Q13685                   
    ## # … with 46,456 more rows
Select the alleles that have the largest amount of data, and filter on
9mers.

``` r
broad.HLA.data %>% 
  filter(pep_length == 9) %>% 
  mutate(sequence = str_to_upper(sequence)) %>% 
  inner_join(conversion.table, na_matches = "never") %>% 
  distinct(sequence, .keep_all = T) %>% 
  transmute(sequence = sequence, swissprot_id = `UniProt/SwissProt Accession`, allele = allele, ensembl_id = ensemble_id) -> fitered.peptides

fitered.peptides
```

    ## # A tibble: 9,196 × 4
    ##    sequence  swissprot_id allele ensembl_id     
    ##    <chr>     <chr>        <chr>  <chr>          
    ##  1 AFHPTAQLL Q9C0C7       A2402  ENSG00000110497
    ##  2 AFIQKSNLI Q15072       A2402  ENSG00000167635
    ##  3 AFLKVSSVF P46060       A2402  ENSG00000100401
    ##  4 AFMVNGQKF O43663       A2402  ENSG00000198901
    ##  5 ALPAAFHTW A8K8P3       A2402  ENSG00000198089
    ##  6 ALPEIFTEL P41091       A2402  ENSG00000130741
    ##  7 ALPKELPLI Q8N344       A2402  ENSG00000105556
    ##  8 ALPSKLPTF Q14258       A2402  ENSG00000121060
    ##  9 ALPSKVPAF P17036       A2402  ENSG00000166526
    ## 10 ALPYFWEHF P26641       A2402  ENSG00000254772
    ## # … with 9,186 more rows
…
fitered.peptides %>% 
  filter(swissprot_id %in% expressed.ids) %>% 
  filter(swissprot_id %in% IDs.in.library) %>% 
  group_by(allele) %>% 
  slice_sample(n = 350) %>% 
  ungroup() -> fitered.peptides

fitered.peptides
```

    ## # A tibble: 2,800 × 4
    ##    sequence  swissprot_id allele ensembl_id     
    ##    <chr>     <chr>        <chr>  <chr>          
    ##  1 ILAKEVEIV Q6P2E9       A0201  ENSG00000038358
    ##  2 RLLEGVNQL Q10570       A0201  ENSG00000071894
    ##  3 NQFPGFKEV P09012       A0201  ENSG00000077312
    ##  4 TMLSLEFHL Q9NUX5       A0201  ENSG00000128513
    ##  5 GLAKLIADV P39748       A0201  ENSG00000168496
    ##  6 SIAEVVHQL O14976       A0201  ENSG00000178950
    ##  7 FLYAGHIFL Q66K64       A0201  ENSG00000132017
    ##  8 KLQDQIFNL O43665       A0201  ENSG00000148908
    ##  9 KMLGLTVSL Q9Y3E5       A0201  ENSG00000141378
    ## 10 VLLSEILHL O43432       A0201  ENSG00000075151
    ## # … with 2,790 more rows
``` r
write_tsv(fitered.peptides, here("Output", "Broad_peptides_subsample.tsv"))
```

## Select decoys

Import UniProt sequences and filter on expressed genes

``` r
uniprot <- read_csv(here("Broad_Data", "HLA_peptidomics", "UniProt_reviewed_input.tsv"))

(uniprot <- filter(uniprot, sequence_id %in% expressed.ids))
```

    ## # A tibble: 14,854 × 2
    ##    sequence_id sequence                                                         
    ##    <chr>       <chr>                                                            
    ##  1 Q8TBF5      MAARVAAVRAAAWLLLGAATGLTRGPAAAFTAARSDAGIRAMCSEIILRQEVLKDGFHRDLLIK…
    ##  2 Q8TBF4      MSGGLAPSKSTVYVSNLPFSLTNNDLYRIFSKYGKVVKVTIMKDKDTRKSKGVAFILFLDKDSA…
    ##  3 O60507      MVGKLKQNLLLACLVISSVTVFYLGQHAMECHHRIEERSQPVKLESTRTTVRTGLDLKANKTFA…
    ##  4 Q8WUP2      MASKPEKRVASSVFITLAPPRRDVAVAEEVRQAVCEARRGRPWEAPAPMKTPEAGLAGRPSPWT…
    ##  5 Q9NVL8      MGLSHSKTHLRVIKVAPLQNKEVETPSAGRVDFAFNQNLEEKTSYSLARLQDQNKALEGQLPPL…
    ##  6 Q8IZF5      MVCSAAPLLLLATTLPLLGSPVAQASQPVSETGVRPREGLQRRQWGPLIGRDKAWNERIDRPFP…
    ##  7 P30613      MSIQENISSLQLRSWVSKSQRDLAKSILIGAPGGPAGYLRRASVAQLTQELGTAFFQQQQLPAA…
    ##  8 O75326      MTPPPPGRAAPSAPRARVPGPPARLGLPLRLRLLLLLWAAAASAQGHLRSGPRIFAVWKGHVGQ…
    ##  9 Q9NVL1      MAPEENAGSELLLQSFKRRFLAARALRSFRWQSLEAKLRDSSDSELLRDILQKHEAVHTEPLDE…
    ## 10 P20933      MARKSNLPVLLVPFLLCQALVRCSSPLPLVVNTWPFKNATEAAWRALASGGSALDAVESGCAMC…
    ## # … with 14,844 more rows
…
