…
# Initial trimming

## Import and inspect

``` r
(feats <- read_tsv(file = here("Data", "Protein_per_Uniprot_entry_library_v2_RBP_GC_length_codon_AA_m6A_m5C_AtoI_m1A_m7G_CD8miRDB_PTM.csv")))
```

    ## # A tibble: 19,008 × 7,125
    ##    Entry      Acetylation_count Amidation_count Hydroxylation_c… Malonylation_co…
    ##    <chr>                  <dbl>           <dbl>            <dbl>            <dbl>
    ##  1 A0A024RBG1                 0               0                0                0
    ##  2 A0A075B759                 0               0                0                0
    ##  3 A0A075B767                 0               0                0                0
    ##  4 A0A087WTH1                 0               0                0                0
    ##  5 A0A087WTH5                 0               0                0                0
    ##  6 A0A087WUL8                 0               0                0                0
    ##  7 A0A087WV53                 0               0                0                0
    ##  8 A0A087WVF3                 0               0                0                0
    ##  9 A0A087WWA1                 0               0                0                0
    ## 10 A0A087WXM9                 0               0                0                0
    ## # … with 18,998 more rows, and 7,120 more variables: Methylation_count <dbl>,
    ## #   N_linked_Glycosylation_count <dbl>, O_linked_Glycosylation_count <dbl>,
    ## #   Palmitoylation_count <dbl>, Phosphorylation_count <dbl>,
    ## #   S_nitrosylation_count <dbl>, Succinylation_count <dbl>,
    ## #   Sumoylation_count <dbl>, Ubiquitination_count <dbl>,
    ## #   UTR5_length_UTR5 <dbl>, AAAA_UTR5 <dbl>, AAAAA_UTR5 <dbl>,
    ## #   AAAAAA_UTR5 <dbl>, AAAAAAA_UTR5 <dbl>, AAAAAAAA_UTR5 <dbl>, …
…
    ## Warning in dir.create(here("Output", "feature_files")): '/DATA/users/k.bresser/
    ## ligandome_project/analysis_new/Ligandome_models/Output/feature_files' already
    ## exists

``` r
feature.list %>% 
  map( ~select(feats, one_of(c("Entry", .))) ) %>% 
  map2( here("Output", "feature_files", paste0(names(.), "_features.tsv")) , write_tsv )
```

    ## $CDS
    ## # A tibble: 19,008 × 1,944
    ##    Entry      CDS_length_CDS AAAA_CDS AAAAA_CDS AAAAAA_CDS AAAAAAA_CDS AAAAAAAA_CDS
    ##    <chr>               <dbl>    <dbl>     <dbl>      <dbl>       <dbl>        <dbl>
    ##  1 A0A024RBG1            546        2         0          0           0            0
    ##  2 A0A075B759            495        1         0          0           0            0
    ##  3 A0A075B767            495        1         0          0           0            0
    ##  4 A0A087WTH1            327        0         0          0           0            0
    ##  5 A0A087WTH5            399        1         0          0           0            0
    ##  6 A0A087WUL8          11532      107        30          0           0            0
    ##  7 A0A087WV53            717        2         1          0           0            0
    ##  8 A0A087WVF3           1650        3         1          0           0            0
    ##  9 A0A087WWA1            288        0         0          0           0            0
    ## 10 A0A087WXM9           1122       17         9          2           1            1
    ## # … with 18,998 more rows, and 1,937 more variables: AAAAAAAAA_CDS <dbl>,
    ## #   AAAAAAC_CDS <dbl>, AAAAAACAAAG_CDS <dbl>, AAAAAAG_CDS <dbl>,
    ## #   AAAAAAGAAAG_CDS <dbl>, AAAAACA_CDS <dbl>, AAAAACC_CDS <dbl>,
    ## #   AAAAAT_CDS <dbl>, AAAACGA_CDS <dbl>, AAAACTA_CDS <dbl>, AAAAGA_CDS <dbl>,
    ## #   AAAAGAA_CDS <dbl>, AAAAGAGAAG_CDS <dbl>, AAAAT_CDS <dbl>, AAAATA_CDS <dbl>,
    ## #   AAAATCA_CDS <dbl>, AAAATT_CDS <dbl>, AAACAAA_CDS <dbl>, AAACACA_CDS <dbl>,
    ## #   AAACCAAA_CDS <dbl>, AAACTCA_CDS <dbl>, AAAGAAA_CDS <dbl>, …
    ## 
    ## $count
    ## # A tibble: 19,008 × 14
    ##    Entry      Acetylation_count Amidation_count Hydroxylation_c… Malonylation_co…
    ##    <chr>                  <dbl>           <dbl>            <dbl>            <dbl>
    ##  1 A0A024RBG1                 0               0                0                0
    ##  2 A0A075B759                 0               0                0                0
    ##  3 A0A075B767                 0               0                0                0
    ##  4 A0A087WTH1                 0               0                0                0
    ##  5 A0A087WTH5                 0               0                0                0
    ##  6 A0A087WUL8                 0               0                0                0
    ##  7 A0A087WV53                 0               0                0                0
    ##  8 A0A087WVF3                 0               0                0                0
    ##  9 A0A087WWA1                 0               0                0                0
    ## 10 A0A087WXM9                 0               0                0                0
    ## # … with 18,998 more rows, and 9 more variables: Methylation_count <dbl>,
    ## #   N_linked_Glycosylation_count <dbl>, O_linked_Glycosylation_count <dbl>,
    ## #   Palmitoylation_count <dbl>, Phosphorylation_count <dbl>,
    ## #   S_nitrosylation_count <dbl>, Succinylation_count <dbl>,
    ## #   Sumoylation_count <dbl>, Ubiquitination_count <dbl>
    ## 
    ## $hsa
    ## # A tibble: 19,008 × 218
    ##    Entry      hsa.let.7a.3p hsa.let.7a.5p hsa.let.7b.3p hsa.let.7b.5p hsa.let.7c.5p
    ##    <chr>              <dbl>         <dbl>         <dbl>         <dbl>         <dbl>
    ##  1 A0A024RBG1             0             0             0             0             0
    ##  2 A0A075B759             0             0             0             0             0
    ##  3 A0A075B767             0             0             0             0             0
    ##  4 A0A087WTH1             0             0             0             0             0
    ##  5 A0A087WTH5             0             0             0             0             0
    ##  6 A0A087WUL8             0             0             0             0             0
    ##  7 A0A087WV53             0             0             0             0             0
    ##  8 A0A087WVF3             0             0             0             0             0
    ##  9 A0A087WWA1             0             0             0             0             0
    ## 10 A0A087WXM9             0             0             0             0             0
    ## # … with 18,998 more rows, and 212 more variables: hsa.let.7d.3p <dbl>,
    ## #   hsa.let.7d.5p <dbl>, hsa.let.7e.5p <dbl>, hsa.let.7f.2.3p <dbl>,
    ## #   hsa.let.7f.5p <dbl>, hsa.let.7g.3p <dbl>, hsa.let.7g.5p <dbl>,
    ## #   hsa.let.7i.3p <dbl>, hsa.let.7i.5p <dbl>, hsa.miR.101.3p <dbl>,
    ## #   hsa.miR.101.5p <dbl>, hsa.miR.103a.3p <dbl>, hsa.miR.106a.5p <dbl>,
    ## #   hsa.miR.106b.3p <dbl>, hsa.miR.106b.5p <dbl>, hsa.miR.107 <dbl>,
    ## #   hsa.miR.10a.5p <dbl>, hsa.miR.10b.5p <dbl>, hsa.miR.125a.5p <dbl>, …
    ## 
    ## $UTR3
    ## # A tibble: 19,008 × 1,974
    ##    Entry      UTR3_length_UTR3 AAAA_UTR3 AAAAA_UTR3 AAAAAA_UTR3 AAAAAAA_UTR3
    ##    <chr>                 <dbl>     <dbl>      <dbl>       <dbl>        <dbl>
    ##  1 A0A024RBG1            2917         34         14           6          4  
    ##  2 A0A075B759             215          1          1           0          0  
    ##  3 A0A075B767              90          0          0           0          0  
    ##  4 A0A087WTH1            1253          8          0           0          0  
    ##  5 A0A087WTH5            1372.         7          2           1          0.5
    ##  6 A0A087WUL8            1623         11          5           1          1  
    ##  7 A0A087WV53              98          0          0           0          0  
    ##  8 A0A087WVF3             309          1          0           0          0  
    ##  9 A0A087WWA1             100          0          0           0          0  
    ## 10 A0A087WXM9             246          6          4           1          1  
    ## # … with 18,998 more rows, and 1,968 more variables: AAAAAAAA_UTR3 <dbl>,
    ## #   AAAAAAAAA_UTR3 <dbl>, AAAAAAC_UTR3 <dbl>, AAAAAACAAAG_UTR3 <dbl>,
    ## #   AAAAAAG_UTR3 <dbl>, AAAAAAGAAAG_UTR3 <dbl>, AAAAAATAAAG_UTR3 <dbl>,
    ## #   AAAAACA_UTR3 <dbl>, AAAAACC_UTR3 <dbl>, AAAAAGGAAAG_UTR3 <dbl>,
    ## #   AAAAAT_UTR3 <dbl>, AAAACGA_UTR3 <dbl>, AAAACTA_UTR3 <dbl>,
    ## #   AAAAGA_UTR3 <dbl>, AAAAGAA_UTR3 <dbl>, AAAAGAGAAG_UTR3 <dbl>,
    ## #   AAAAT_UTR3 <dbl>, AAAATA_UTR3 <dbl>, AAAATCA_UTR3 <dbl>, …
    ## 
    ## $UTR5
    ## # A tibble: 19,008 × 1,626
    ##    Entry      UTR5_length_UTR5 AAAA_UTR5 AAAAA_UTR5 AAAAAA_UTR5 AAAAAAA_UTR5
    ##    <chr>                 <dbl>     <dbl>      <dbl>       <dbl>        <dbl>
    ##  1 A0A024RBG1             179        0          0             0            0
    ##  2 A0A075B759              75        1          0             0            0
    ##  3 A0A075B767              75        1          1             0            0
    ##  4 A0A087WTH1              69        0          0             0            0
    ##  5 A0A087WTH5             232.       0.5        0.5           0            0
    ##  6 A0A087WUL8             786        7          2             2            1
    ##  7 A0A087WV53               0        0          0             0            0
    ##  8 A0A087WVF3             157        0          0             0            0
    ##  9 A0A087WWA1              17        0          0             0            0
    ## 10 A0A087WXM9             158        0          0             0            0
    ## # … with 18,998 more rows, and 1,620 more variables: AAAAAAAA_UTR5 <dbl>,
    ## #   AAAAAAAAA_UTR5 <dbl>, AAAAAAC_UTR5 <dbl>, AAAAAAG_UTR5 <dbl>,
    ## #   AAAAACA_UTR5 <dbl>, AAAAACC_UTR5 <dbl>, AAAAAT_UTR5 <dbl>,
    ## #   AAAACGA_UTR5 <dbl>, AAAACTA_UTR5 <dbl>, AAAAGA_UTR5 <dbl>,
    ## #   AAAAGAA_UTR5 <dbl>, AAAAT_UTR5 <dbl>, AAAATA_UTR5 <dbl>,
    ## #   AAAATCA_UTR5 <dbl>, AAAATT_UTR5 <dbl>, AAACAAA_UTR5 <dbl>,
    ## #   AAACACA_UTR5 <dbl>, AAACCAAA_UTR5 <dbl>, AAACTCA_UTR5 <dbl>, …
