…
write_tsv(to.plot, here("Output", "rf_model_metrics.tsv"))

to.plot
```

    ## # A tibble: 60 × 6
    ##     mtry tumor      classes metric value     SD
    ##    <dbl> <fct>      <chr>   <chr>  <dbl>  <dbl>
    ##  1    66 SK-MEL-95  CDS     ROC    0.701 0.0277
    ##  2    66 SK-MEL-95  CDS     Sens   0.686 0.0569
    ##  3    66 SK-MEL-95  CDS     Spec   0.638 0.0281
    ##  4    66 SK-MEL-95  CDS     Prec   0.487 0.0251
    ##  5    66 M026.X1    CDS     ROC    0.687 0.0297
    ##  6    66 M026.X1    CDS     Sens   0.666 0.0537
    ##  7    66 M026.X1    CDS     Spec   0.634 0.0394
    ##  8    66 M026.X1    CDS     Prec   0.477 0.0252
    ##  9    66 NKIRTIL006 CDS     ROC    0.723 0.0245
    ## 10    66 NKIRTIL006 CDS     Sens   0.672 0.0289
    ## # … with 50 more rows
…
rm(rf.results)
gc()
```

    ##           used  (Mb) gc trigger   (Mb)   max used   (Mb)
    ## Ncells 2566244 137.1    4857398  259.5    4857398  259.5
    ## Vcells 4427589  33.8 1076790831 8215.3 1041589991 7946.8

``` r
write_tsv(importance.table, here("Output", "rf_importance.tsv"))

importance.table
```

    ## # A tibble: 17,313 × 4
    ##    tumor     classes feature         importance
    ##    <fct>     <chr>   <chr>                <dbl>
    ##  1 SK-MEL-95 CDS     CDS_length_CDS        7.32
    ##  2 SK-MEL-95 CDS     AAAA_CDS              6.78
    ##  3 SK-MEL-95 CDS     AAAAA_CDS             4.88
    ##  4 SK-MEL-95 CDS     AAAAAA_CDS            5.41
    ##  5 SK-MEL-95 CDS     AAAAAAA_CDS           3.35
    ##  6 SK-MEL-95 CDS     AAAAAAAA_CDS          3.23
    ##  7 SK-MEL-95 CDS     AAAAAAAAA_CDS         2.32
    ##  8 SK-MEL-95 CDS     AAAAAAC_CDS           3.05
    ##  9 SK-MEL-95 CDS     AAAAAACAAAG_CDS       1.02
    ## 10 SK-MEL-95 CDS     AAAAAAG_CDS           4.55
    ## # … with 17,303 more rows
…
