…
train.peptides %>% 
  group_by(tumor, ligand) %>% 
  nest() %>% 
  ungroup() %>% 
  mutate(sample.size = c(13556,13556,13556, 3389, 3389, 3389)) %>% 
  mutate(data = map2(data, sample.size, sample_n)) %>% 
  select(-sample.size) %>% 
  unnest(data) -> train.peptides

train.peptides
```

    ## # A tibble: 50,835 × 9
    ##    tumor     ligand peptide_length    rna  ribo   chop affMIN swissprot_id peptide
    ##    <fct>     <lgl>           <dbl>  <dbl> <dbl>  <dbl>  <dbl> <chr>        <chr>  
    ##  1 SK-MEL-95 FALSE               9 23.6   478.  0.0736  35    P53667       CTWREE…
    ##  2 SK-MEL-95 FALSE               9  0.886   7   0.0352  70    P78543       CGLLTC…
    ##  3 SK-MEL-95 FALSE               9  0.653  34.1 0.734    0.9  Q8TDI0       RLAEVE…
    ##  4 SK-MEL-95 FALSE               9  0.252   0   0.900    0.09 O95049       LRKHSS…
    ##  5 SK-MEL-95 FALSE               9  0.358   6   0.0257  12    Q6ZS72       SKACRL…
    ##  6 SK-MEL-95 FALSE               9  0.786  68.0 0.652    1.9  O75473       SLRSLN…
    ##  7 SK-MEL-95 FALSE               9 27.7   703.  0.156    8    P98161       GLSLPL…
    ##  8 SK-MEL-95 FALSE               9 14.2   575.  0.147   16    Q8TDM6       LLPILY…
    ##  9 SK-MEL-95 FALSE               9  2.57  485   0.0823  39    P23352       QPIRPK…
    ## 10 SK-MEL-95 FALSE              10  8.98  271.  0.187   11    Q12955       VLYREY…
    ## # … with 50,825 more rows
…
plot.data
```

    ## # A tibble: 2,541,750 × 12
    ##    Entry  tumor  ligand peptide_length   rna  ribo   chop affMIN peptide feature
    ##    <chr>  <fct>  <lgl>           <dbl> <dbl> <dbl>  <dbl>  <dbl> <chr>   <fct>  
    ##  1 A0AUZ9 SK-ME… FALSE               9  9.95  371. 0.0302     60 GHHPKK… CDS_m7G
    ##  2 A0AUZ9 SK-ME… FALSE               9  9.95  371. 0.0302     60 GHHPKK… CDS_m1A
    ##  3 A0AUZ9 SK-ME… FALSE               9  9.95  371. 0.0302     60 GHHPKK… CCTCC_…
    ##  4 A0AUZ9 SK-ME… FALSE               9  9.95  371. 0.0302     60 GHHPKK… CTCC_C…
    ##  5 A0AUZ9 SK-ME… FALSE               9  9.95  371. 0.0302     60 GHHPKK… CCTC_C…
    ##  6 A0AUZ9 SK-ME… FALSE               9  9.95  371. 0.0302     60 GHHPKK… GC_per…
    ##  7 A0AUZ9 SK-ME… FALSE               9  9.95  371. 0.0302     60 GHHPKK… CCCT_C…
    ##  8 A0AUZ9 SK-ME… FALSE               9  9.95  371. 0.0302     60 GHHPKK… AGGGG_…
    ##  9 A0AUZ9 SK-ME… FALSE               9  9.95  371. 0.0302     60 GHHPKK… GGGG_C…
    ## 10 A0AUZ9 SK-ME… FALSE               9  9.95  371. 0.0302     60 GHHPKK… ACCTCC…
    ## # … with 2,541,740 more rows, and 2 more variables: value <dbl>,
    ## #   feature.type <chr>
…
Plot the T statistics as barplots, either all together or facetted.

``` r
feat.classes <- (c("UTR5","CDS" ,"UTR3","hsa",  "count"))

plot.data %>% 
  group_by(feature) %>% 
  t_test(value~ligand) %>% 
  adjust_pvalue(method = "bonferroni") -> stats

stats
```

    ## # A tibble: 50 × 10
    ##    feature  .y.   group1 group2    n1    n2 statistic     df         p     p.adj
    ##  * <fct>    <chr> <chr>  <chr>  <int> <int>     <dbl>  <dbl>     <dbl>     <dbl>
    ##  1 CDS_m7G  value FALSE  TRUE   40668 10167     -30.3 12826. 3.47e-195 1.73e-193
    ##  2 CDS_m1A  value FALSE  TRUE   40668 10167     -16.5 13501. 1.5 e- 60 7.5 e- 59
    ##  3 CCTCC_C… value FALSE  TRUE   40668 10167      36.8 35599. 5.93e-291 2.96e-289
    ##  4 CTCC_CDS value FALSE  TRUE   40668 10167      37.5 31895. 2.67e-301 1.33e-299
    ##  5 CCTC_CDS value FALSE  TRUE   40668 10167      36.9 30095. 1.53e-291 7.65e-290
    ##  6 GC_perc… value FALSE  TRUE   40668 10167      16.3 16798. 1.6 e- 59 8   e- 58
    ##  7 CCCT_CDS value FALSE  TRUE   40668 10167      36.0 25689. 1.32e-276 6.60e-275
    ##  8 AGGGG_C… value FALSE  TRUE   40668 10167      31.9 24684. 8.49e-219 4.24e-217
    ##  9 GGGG_CDS value FALSE  TRUE   40668 10167      35.3 25738. 4.78e-266 2.39e-264
    ## 10 ACCTCC_… value FALSE  TRUE   40668 10167      30.6 36698. 1.84e-203 9.2 e-202
    ## # … with 40 more rows
…
