…
``` r
read_csv(here("Data", "IEDB_melanoma_ligands.csv"), skip = 1) %>% 
  select(3) %>% 
  rename(Sequence = contains("Description")) %>% 
  mutate(length = nchar(Sequence),
         source = "IEDB") -> IEDB.peptides
```

    ## Warning: One or more parsing issues, see `problems()` for details

``` r
IEDB.peptides
```

    ## # A tibble: 31,997 × 3
    ##    Sequence    length source
    ##    <chr>        <int> <chr> 
    ##  1 AAGIGILTV        9 IEDB  
    ##  2 AARPATSTL        9 IEDB  
    ##  3 AASKERSGVSL     11 IEDB  
    ##  4 ACDPHSGHFV      10 IEDB  
    ##  5 AEVDKVTGRF      10 IEDB  
    ##  6 AHSTIMPRL        9 IEDB  
    ##  7 ALAPSTMKI        9 IEDB  
    ##  8 ALDGGNKHFL      10 IEDB  
    ##  9 ALFGALFLA        9 IEDB  
    ## 10 ALKGTNESL        9 IEDB  
    ## # … with 31,987 more rows
…
    ## Warning: `cols` is now required when using unnest().
    ## Please use `cols = c(value)`

``` r
plot.data %>% 
  count(name, overlap) %>% 
  group_by(name) %>% 
  mutate(perc = (n / sum(n))*100 )
```

    ## # A tibble: 36 × 4
    ## # Groups:   name [3]
    ##    name    overlap     n   perc
    ##    <chr>     <dbl> <int>  <dbl>
    ##  1 M026.X1       0    67  0.969
    ##  2 M026.X1       1  2162 31.3  
    ##  3 M026.X1       2  1387 20.1  
    ##  4 M026.X1       3  1385 20.0  
    ##  5 M026.X1       4   830 12.0  
    ##  6 M026.X1       5   408  5.90 
    ##  7 M026.X1       6   349  5.05 
    ##  8 M026.X1       7   173  2.50 
    ##  9 M026.X1       8    79  1.14 
    ## 10 M026.X1       9    77  1.11 
    ## # … with 26 more rows
…
<img src="1-verify_HLA_ligands_files/figure-gfm/unnamed-chunk-1-4.png" style="display: block; margin: auto;" />

``` r
MS.peptides %>% 
  mutate(peptide.tables = map(peptide.tables, select, "Sequence")) %>% 
  unnest(cols = peptide.tables) %>% 
  mutate(length = nchar(Sequence))  -> MS.peptides

MS.peptides
```

    ## # A tibble: 20,696 × 3
    ##    Sequence       source    length
    ##    <chr>          <chr>      <int>
    ##  1 HSKIIIIKKGHAKD SK-MEL-95     14
    ##  2 GARPREEVVQKEQE SK-MEL-95     14
    ##  3 HKVTQYKKGKDSLY SK-MEL-95     14
    ##  4 TKETIEQEKRSEIS SK-MEL-95     14
    ##  5 AKRTKKVGIVGKY  SK-MEL-95     13
    ##  6 SRRAEEKIKSVGGA SK-MEL-95     14
    ##  7 KIRAADKRSKALKA SK-MEL-95     14
    ##  8 EFHDSSDHHTF    SK-MEL-95     11
    ##  9 RRRNTLQLHRYR   SK-MEL-95     12
    ## 10 VITDKEKAEKLKQS SK-MEL-95     14
    ## # … with 20,686 more rows
…
``` r
MS.peptides %>% 
  bind_rows( IEDB.peptides) %>% 
  filter(length < 15, length > 7) %>% 
  mutate(length = as.factor(length))%>%
  count(source, length) %>% 
  group_by(source) %>% 
  mutate(fraction = n/sum(n)) -> length.distributions

write_tsv(length.distributions, here("Output", "length_distributions.tsv"))

length.distributions
```

    ## # A tibble: 28 × 4
    ## # Groups:   source [4]
    ##    source  length     n fraction
    ##    <chr>   <fct>  <int>    <dbl>
    ##  1 IEDB    8       1278  0.0413 
    ##  2 IEDB    9      19035  0.615  
    ##  3 IEDB    10      5291  0.171  
    ##  4 IEDB    11      3519  0.114  
    ##  5 IEDB    12      1094  0.0353 
    ##  6 IEDB    13       530  0.0171 
    ##  7 IEDB    14       227  0.00733
    ##  8 M026.X1 8        220  0.0318 
    ##  9 M026.X1 9       4118  0.595  
    ## 10 M026.X1 10      1361  0.197  
    ## # … with 18 more rows
…
Next we can switch back to a tibble format. First `purrr:map` the
enframe function to get a list of count tables, then enframe those into
a single tibble, and unnest.

``` r
AA.counts %>% 
  map(enframe, "AA", "count") %>% 
  enframe( "source", "counts") %>% 
  unnest(counts) -> AA.counts

AA.counts
```

    ## # A tibble: 80 × 3
    ##    source    AA    count
    ##    <chr>     <chr> <int>
    ##  1 SK-MEL-95 H      1607
    ##  2 SK-MEL-95 S      2504
    ##  3 SK-MEL-95 K      3190
    ##  4 SK-MEL-95 I      3408
    ##  5 SK-MEL-95 G      1479
    ##  6 SK-MEL-95 A      3043
    ##  7 SK-MEL-95 D      2246
    ##  8 SK-MEL-95 R      2050
    ##  9 SK-MEL-95 P      1710
    ## 10 SK-MEL-95 E      3273
    ## # … with 70 more rows

Now calculate frequencies, and reshuffle the tibble slightly to allow us
to plot the tumors vs IEDB.

``` r
AA.counts %>% 
  group_by(source) %>% 
  mutate(fraction = count/sum(count)) %>% 
  pivot_wider(id_cols = c(AA) , names_from = source, values_from = fraction) %>% 
  pivot_longer(cols = c(`SK-MEL-95`, `M026.X1`, `NKIRTIL006`), names_to = "tumor", values_to = "tumorFraction") -> to.plot

to.plot
```

    ## # A tibble: 60 × 4
    ##    AA      IEDB tumor      tumorFraction
    ##    <chr>  <dbl> <chr>              <dbl>
    ##  1 H     0.0340 SK-MEL-95         0.0324
    ##  2 H     0.0340 M026.X1           0.0219
    ##  3 H     0.0340 NKIRTIL006        0.0314
    ##  4 S     0.0754 SK-MEL-95         0.0504
    ##  5 S     0.0754 M026.X1           0.0671
    ##  6 S     0.0754 NKIRTIL006        0.0605
    ##  7 K     0.0608 SK-MEL-95         0.0643
    ##  8 K     0.0608 M026.X1           0.0514
    ##  9 K     0.0608 NKIRTIL006        0.0684
    ## 10 I     0.0531 SK-MEL-95         0.0687
    ## # … with 50 more rows
…
Again, in the same manner as above, transform to a tibble format.

``` r
AA.counts.ref %>% 
  map(enframe, "AA", "count.ref") %>% 
  enframe( "source", "counts") %>% 
  unnest(counts) -> AA.counts.ref

AA.counts.ref
```

    ## # A tibble: 60 × 3
    ##    source    AA    count.ref
    ##    <chr>     <chr>     <int>
    ##  1 SK-MEL-95 H        297990
    ##  2 SK-MEL-95 S        942679
    ##  3 SK-MEL-95 K        648893
    ##  4 SK-MEL-95 I        491781
    ##  5 SK-MEL-95 G        744722
    ##  6 SK-MEL-95 A        794836
    ##  7 SK-MEL-95 D        536828
    ##  8 SK-MEL-95 R        639604
    ##  9 SK-MEL-95 P        715177
    ## 10 SK-MEL-95 E        804352
    ## # … with 50 more rows
…
``` r
AA.counts %>% 
  filter(!(source == "IEDB")) %>% 
  full_join(AA.counts.ref) %>% 
  group_by(source) %>% 
  mutate(fraction.MS = count/sum(count),
         fraction.ref = count.ref/sum(count.ref)) -> to.plot2

to.plot2
```

    ## # A tibble: 60 × 6
    ## # Groups:   source [3]
    ##    source    AA    count count.ref fraction.MS fraction.ref
    ##    <chr>     <chr> <int>     <int>       <dbl>        <dbl>
    ##  1 SK-MEL-95 H      1607    297990      0.0324       0.0263
    ##  2 SK-MEL-95 S      2504    942679      0.0504       0.0832
    ##  3 SK-MEL-95 K      3190    648893      0.0643       0.0573
    ##  4 SK-MEL-95 I      3408    491781      0.0687       0.0434
    ##  5 SK-MEL-95 G      1479    744722      0.0298       0.0657
    ##  6 SK-MEL-95 A      3043    794836      0.0613       0.0701
    ##  7 SK-MEL-95 D      2246    536828      0.0452       0.0474
    ##  8 SK-MEL-95 R      2050    639604      0.0413       0.0564
    ##  9 SK-MEL-95 P      1710    715177      0.0344       0.0631
    ## 10 SK-MEL-95 E      3273    804352      0.0659       0.0710
    ## # … with 50 more rows
…
Now we’ve got nested tibbles, lets unfold all those data into a table
and we’ve got our data in a useful format!

``` r
AA.counts.positions.table %>% 
  unnest(cols = data) %>% 
  unnest(cols = count.table) %>% 
  mutate(count = count + 1) -> AA.counts.positions.table

AA.counts.positions.table
```

    ## # A tibble: 540 × 4
    ##    position tumor     AA    count
    ##       <int> <chr>     <chr> <dbl>
    ##  1        1 SK-MEL-95 H       125
    ##  2        1 SK-MEL-95 S       334
    ##  3        1 SK-MEL-95 K       499
    ##  4        1 SK-MEL-95 I       315
    ##  5        1 SK-MEL-95 G        81
    ##  6        1 SK-MEL-95 A       291
    ##  7        1 SK-MEL-95 D       231
    ##  8        1 SK-MEL-95 R       319
    ##  9        1 SK-MEL-95 P        39
    ## 10        1 SK-MEL-95 E       129
    ## # … with 530 more rows
…
``` r
AA.counts.positions.table %>% 
  left_join(AA.counts.ref, by = c("tumor" = "source", "AA" = "AA")) %>% 
  group_by(tumor, position) %>% 
  mutate(fraction.MS = count/sum(count),
         fraction.ref = count.ref/sum(count.ref),
         position.bias = log2(fraction.MS/fraction.ref)) %>% 
  ungroup() -> position.frequencies

write_tsv(position.frequencies, here("Output", "position_frequencies.tsv"))

position.frequencies
```

    ## # A tibble: 540 × 8
    ##    position tumor     AA    count count.ref fraction.MS fraction.ref position.bias
    ##       <int> <chr>     <chr> <dbl>     <int>       <dbl>        <dbl>         <dbl>
    ##  1        1 SK-MEL-95 H       125    297990     0.0302        0.0263       0.201  
    ##  2        1 SK-MEL-95 S       334    942679     0.0808        0.0832      -0.0425 
    ##  3        1 SK-MEL-95 K       499    648893     0.121         0.0573       1.08   
    ##  4        1 SK-MEL-95 I       315    491781     0.0762        0.0434       0.812  
    ##  5        1 SK-MEL-95 G        81    744722     0.0196        0.0657      -1.75   
    ##  6        1 SK-MEL-95 A       291    794836     0.0704        0.0701       0.00479
    ##  7        1 SK-MEL-95 D       231    536828     0.0559        0.0474       0.238  
    ##  8        1 SK-MEL-95 R       319    639604     0.0771        0.0564       0.451  
    ##  9        1 SK-MEL-95 P        39    715177     0.00943       0.0631      -2.74   
    ## 10        1 SK-MEL-95 E       129    804352     0.0312        0.0710      -1.19   
    ## # … with 530 more rows
…
# Sequence logo’s

We’ll compare the peptide sequence motifs that we’ve found using the
GibbsCluster algorithm to the sequence motifs of known ligands of each
allele expressed by the melanoma lines.

To make the reference, we’ll use all Human HLA class I ligands in IEDB.

``` r
IEDB.class.I <- read_tsv(here("Data", "human_class_I_ligands_IEDB.tsv"))

IEDB.class.I
```

    ## # A tibble: 1,061,140 × 15
    ##    `Object Type`  Description `Starting Posit… `Ending Positio… `Parent Protein`
    ##    <chr>          <chr>                  <dbl>            <dbl> <chr>           
    ##  1 Linear peptide LIYDSSLCDL                83               92 Mammaglobin-A   
    ##  2 Linear peptide LLDVTAAV                  NA               NA <NA>            
    ##  3 Linear peptide LLSAEPVPA                 20               28 B-cell antigen …
    ##  4 Linear peptide IMLEALERV                 68               76 Small nuclear r…
    ##  5 Linear peptide SIIGRLLEV                 11               19 Serine/threonin…
    ##  6 Linear peptide ILDQKINEV                 23               31 Ornithine decar…
    ##  7 Linear peptide RLAVYIDRV                 41               49 Prelamin-A/C    
    ##  8 Linear peptide ILMEHIHKL                137              145 60S ribosomal p…
    ##  9 Linear peptide SLAGGIIGV                154              162 Heterogeneous n…
    ## 10 Linear peptide GLYSGVTTV                 46               54 Ribonucleoside-…
    ## # … with 1,061,130 more rows, and 10 more variables: Parent Protein IRI <chr>,
    ## #   Organism Name <chr>, Parent Species <chr>, Name <chr>,
    ## #   Method/Technique <chr>, Assay Group <chr>, Qualitative Measure <chr>,
    ## #   Quantitative measurement <dbl>, Allele Name <chr>, MHC allele class <chr>
…
Lets load in the data

``` r
columns.to.keep <- c("ligand", "affMIN", "chop", "rna", "ribo","tumor")

read_tsv(here("Data", "rf_train_peptides.tsv")) %>% 
  select(one_of(columns.to.keep)) -> peptide.table
  
peptide.table
```

    ## # A tibble: 84,117 × 6
    ##    ligand affMIN   chop     rna   ribo tumor    
    ##    <lgl>   <dbl>  <dbl>   <dbl>  <dbl> <chr>    
    ##  1 FALSE    12   0.0434   0.195    56  SK-MEL-95
    ##  2 FALSE    24   0.417   23.8     511. SK-MEL-95
    ##  3 FALSE    85   0.0241   2.49    438  SK-MEL-95
    ##  4 FALSE    41   0.0255  14.6     473. SK-MEL-95
    ##  5 FALSE     2.5 0.133   14.2     272. SK-MEL-95
    ##  6 FALSE    39   0.0323 120.    21009. SK-MEL-95
    ##  7 FALSE    43   0.0342 100.     2647. SK-MEL-95
    ##  8 FALSE     2.5 0.0926  91.8    2047. SK-MEL-95
    ##  9 FALSE    33   0.0235  15.8     326  SK-MEL-95
    ## 10 FALSE    38   0.0330  12.8     328. SK-MEL-95
    ## # … with 84,107 more rows
…
