…
expression.data
```

    ## # A tibble: 3 × 2
    ##   expression.info            tumor     
    ##   <list>                     <chr>     
    ## 1 <spec_tbl_df [15,727 × 4]> M026X1    
    ## 2 <spec_tbl_df [15,973 × 4]> NKIRTIL006
    ## 3 <spec_tbl_df [16,258 × 4]> SKMEL95

``` r
(expression.data <- unnest(expression.data, cols = expression.info))
```

    ## # A tibble: 47,958 × 5
    ##    swissprot_id     rna   ribo length tumor 
    ##    <chr>          <dbl>  <dbl>  <dbl> <chr> 
    ##  1 Q8IW70        0.0377   0       566 M026X1
    ##  2 Q8NAP8        0.0614   2.28    495 M026X1
    ##  3 Q8IV76        7.78    84       773 M026X1
    ##  4 O94876       21.8     19       653 M026X1
    ##  5 Q6P1R3        1.59    13.0     559 M026X1
    ##  6 Q15714       19.6    357.     1073 M026X1
    ##  7 Q13207        8.92   544.      712 M026X1
    ##  8 Q9H4H8       29.0    133       585 M026X1
    ##  9 P31277        0.0632   0       338 M026X1
    ## 10 Q96KQ7       21.1    305.     1210 M026X1
    ## # … with 47,948 more rows
…
peptide.data
```

    ## # A tibble: 3 × 2
    ##   peptide.tables             tumor     
    ##   <list>                     <chr>     
    ## 1 <spec_tbl_df [4,606 × 37]> M026X1    
    ## 2 <spec_tbl_df [7,198 × 28]> NKIRTIL006
    ## 3 <spec_tbl_df [6,024 × 30]> SKMEL95

``` r
(peptide.data <- unnest(peptide.data, cols = peptide.tables))
```

    ## # A tibble: 17,828 × 50
    ##    peptide   swissprot_id length affA0201 affpA0201  chop   rna   ribo affA2402
    ##    <chr>     <chr>         <dbl>    <dbl>     <dbl> <dbl> <dbl>  <dbl>    <dbl>
    ##  1 AAAEEEKVL Q02952         1782   31885       41   0.492  29.5  2556.   43069.
    ##  2 AAAEITRKL O00567          594   16191.      19   0.956 468.    962.   29787.
    ##  3 AAAELERRY Q9P2E5          772   36986.      55   0.502  11.8  1044.   43584.
    ##  4 AAAELIKEV Q13425          540    1845.       5.5 0.765 134.    840.   37380.
    ##  5 AAAGHMKLV Q9C0D5         1861    5423.       9   0.504  28.6   562.   32774.
    ##  6 AAAGLHRYL P54802          743   14287       17   0.702  44.5   575.   24555 
    ##  7 AAANAIRVY Q9NRK6          738   32248.      41   0.867  15.1   202    39046.
    ##  8 AAAPDVKEL P24821         2201   20037       23   0.957 583.  17890.   37490.
    ##  9 AAAPVIKAY Q8IW45          347   26937       32   0.965  13.1    82    38356.
    ## 10 AAATSVHVV Q68EM7          881    4348.       8   0.321  25.9   136.   28277 
    ## # … with 17,818 more rows, and 41 more variables: affpA2402 <dbl>,
    ## #   affB1801 <dbl>, affpB1801 <dbl>, affB5101 <dbl>, affpB5101 <dbl>,
    ## #   affC0501 <dbl>, affpC0501 <dbl>, affC1602 <dbl>, affpC1602 <dbl>,
    ## #   affMIN <dbl>, ligand <lgl>, peptide_length <dbl>, A6: Area <chr>,
    ## #   B6: Area <chr>, C6: Area <chr>, D6: Area <chr>, E6: Area <chr>,
    ## #   F6: Area <chr>, G6: Area <chr>, H6: Area <chr>, I6: Area <chr>,
    ## #   J6: Area <chr>, K6: Area <chr>, L6: Area <chr>, M6: Area <chr>, …

Count HLA ligands per protein, for each tumor, and join with the
expression data.

``` r
peptide.data %>% 
  count(tumor, swissprot_id, name = "nr_ligands") %>% 
  right_join(expression.data, by = c("swissprot_id", "tumor")) %>% 
  mutate(nr_ligands = replace_na(nr_ligands, 0)) -> combined.data

combined.data
```

    ## # A tibble: 47,958 × 6
    ##    tumor  swissprot_id nr_ligands   rna  ribo length
    ##    <chr>  <chr>             <dbl> <dbl> <dbl>  <dbl>
    ##  1 M026X1 A0AVF1                1 17.5   55.0    554
    ##  2 M026X1 A0AVT1                1 64.9  202     1052
    ##  3 M026X1 A1A4V9                1  5.61  21.0    331
    ##  4 M026X1 A1L390                1  4.93  79.1   1219
    ##  5 M026X1 A1XBS5                1 56.1   71.0    289
    ##  6 M026X1 A2RRP1                3 49.1  293.    2371
    ##  7 M026X1 A3KMH1                4 19.4  242.    1905
    ##  8 M026X1 A3KN83                2 34.5  322.    1393
    ##  9 M026X1 A5PLL7                1 62.8  151.     270
    ## 10 M026X1 A5PLN9                1 13.2   40.4    417
    ## # … with 47,948 more rows
…
cumsum.data
```

    ## # A tibble: 191,832 × 7
    ## # Groups:   ordered_by [4]
    ##    tumor   length nr_ligands ordered_by expression proteome_search… ligands_found
    ##    <chr>    <dbl>      <dbl> <chr>           <dbl>            <dbl>         <dbl>
    ##  1 SKMEL95   1006          0 ribo         1095156         0.0000344      0       
    ##  2 SKMEL95    375          5 ribo          318082.        0.0000473      0.000280
    ##  3 SKMEL95    462          0 ribo          286469.        0.0000631      0.000280
    ##  4 SKMEL95   2386          5 ribo          239487.        0.000145       0.000561
    ##  5 SKMEL95   2647         11 ribo          213979.        0.000235       0.00118 
    ##  6 SKMEL95   1170          0 ribo          202334.        0.000276       0.00118 
    ##  7 SKMEL95    375          1 ribo          179255.        0.000288       0.00123 
    ##  8 SKMEL95    466          4 ribo          176072.        0.000304       0.00146 
    ##  9 SKMEL95   1960          4 ribo          159971.        0.000371       0.00168 
    ## 10 SKMEL95    335          3 ribo          139880.        0.000383       0.00185 
    ## # … with 191,822 more rows
…
We’ll trash proteins for which we detected no HLA ligands, and calculate
the HLA sampling

``` r
combined.data %>% 
  filter(nr_ligands > 0) %>% 
  mutate(HLA_sampling = (nr_ligands/length)*1000) -> sampling.data

sampling.data
```

    ## # A tibble: 9,871 × 7
    ##    tumor  swissprot_id nr_ligands   rna  ribo length HLA_sampling
    ##    <chr>  <chr>             <dbl> <dbl> <dbl>  <dbl>        <dbl>
    ##  1 M026X1 A0AVF1                1 17.5   55.0    554        1.81 
    ##  2 M026X1 A0AVT1                1 64.9  202     1052        0.951
    ##  3 M026X1 A1A4V9                1  5.61  21.0    331        3.02 
    ##  4 M026X1 A1L390                1  4.93  79.1   1219        0.820
    ##  5 M026X1 A1XBS5                1 56.1   71.0    289        3.46 
    ##  6 M026X1 A2RRP1                3 49.1  293.    2371        1.27 
    ##  7 M026X1 A3KMH1                4 19.4  242.    1905        2.10 
    ##  8 M026X1 A3KN83                2 34.5  322.    1393        1.44 
    ##  9 M026X1 A5PLL7                1 62.8  151.     270        3.70 
    ## 10 M026X1 A5PLN9                1 13.2   40.4    417        2.40 
    ## # … with 9,861 more rows
…
