…
Import the results table.

``` r
here("Output", "XGB_final") %>% 
  list.files() %>% 
  here("Output", "XGB_final", .) %>% 
  map(read_tsv) %>% 
  reduce(bind_rows) %>% 
  mutate(tumor = fct_recode(tumor, M026.X1 = "M026", SKMEL95 = "mel95", NKIRTIL006 = "RTE")) -> XGB.results

XGB.results
```

    ## # A tibble: 2,540,538 × 15
    ##    aff_chop_Library_ribo aff_chop_Library_rn… aff_chop_Library… aff_chop_Library
    ##                    <dbl>                <dbl>             <dbl>            <dbl>
    ##  1             0.0468               0.0184            0.0353            0.0228  
    ##  2             0.0000181            0.0000418         0.0000566         0.000230
    ##  3             0.000156             0.000496          0.000215          0.00117 
    ##  4             0.240                0.381             0.284             0.0740  
    ##  5             0.346                0.603             0.430             0.128   
    ##  6             0.0169               0.00869           0.00594           0.0123  
    ##  7             0.0575               0.0431            0.0731            0.0581  
    ##  8             0.00370              0.0126            0.00329           0.00915 
    ##  9             0.0108               0.00482           0.00319           0.0361  
    ## 10             0.0111               0.0121            0.0462            0.0540  
    ## # … with 2,540,528 more rows, and 11 more variables: aff_chop_only <dbl>,
    ## #   aff_chop_ribo <dbl>, aff_chop_rna_ribo <dbl>, aff_chop_rna <dbl>,
    ## #   aff_only <dbl>, library_only <dbl>, random <dbl>, ribo_only <dbl>,
    ## #   rna_only <dbl>, tumor <fct>, ligand <lgl>
…
``` r
XGB.results %>% 
  mutate(detected = case_when(ligand == TRUE ~ 1,
                              TRUE ~ 0)) %>% 
  pivot_longer(cols = !c("detected", "ligand", "tumor"), 
               names_to =  "model", 
               values_to =  "score") -> XGB.results

XGB.results
```

    ## # A tibble: 33,026,994 × 5
    ##    tumor   ligand detected model                      score
    ##    <fct>   <lgl>     <dbl> <chr>                      <dbl>
    ##  1 SKMEL95 FALSE         0 aff_chop_Library_ribo     0.0468
    ##  2 SKMEL95 FALSE         0 aff_chop_Library_rna_ribo 0.0184
    ##  3 SKMEL95 FALSE         0 aff_chop_Library_rna      0.0353
    ##  4 SKMEL95 FALSE         0 aff_chop_Library          0.0228
    ##  5 SKMEL95 FALSE         0 aff_chop_only             0.0994
    ##  6 SKMEL95 FALSE         0 aff_chop_ribo             0.248 
    ##  7 SKMEL95 FALSE         0 aff_chop_rna_ribo         0.140 
    ##  8 SKMEL95 FALSE         0 aff_chop_rna              0.110 
    ##  9 SKMEL95 FALSE         0 aff_only                  0.363 
    ## 10 SKMEL95 FALSE         0 library_only              0.203 
    ## # … with 33,026,984 more rows
For these analysis we’ll focus on the top 0.1% scoring peptides for each
model. Let’s subset on those. Note that I arrange on both both model
scores and a random number for tie breaking.

``` r
XGB.results %>% 
  group_by(tumor, model) %>% 
  mutate(random = sample(1:n())) %>% 
  arrange(desc(score), random, .by_group = T) %>% 
  slice_head(prop = .001) -> XGB.results
 
XGB.results
```

    ## # A tibble: 32,994 × 6
    ## # Groups:   tumor, model [39]
    ##    tumor   ligand detected model            score random
    ##    <fct>   <lgl>     <dbl> <chr>            <dbl>  <int>
    ##  1 M026.X1 TRUE          1 aff_chop_Library  1.00 427085
    ##  2 M026.X1 FALSE         0 aff_chop_Library  1.00 779842
    ##  3 M026.X1 TRUE          1 aff_chop_Library  1.00 554996
    ##  4 M026.X1 FALSE         0 aff_chop_Library  1.00 510839
    ##  5 M026.X1 TRUE          1 aff_chop_Library  1.00 825699
    ##  6 M026.X1 TRUE          1 aff_chop_Library  1.00 449160
    ##  7 M026.X1 FALSE         0 aff_chop_Library  1.00 640497
    ##  8 M026.X1 FALSE         0 aff_chop_Library  1.00 172707
    ##  9 M026.X1 FALSE         0 aff_chop_Library  1.00  48269
    ## 10 M026.X1 FALSE         0 aff_chop_Library  1.00 588754
    ## # … with 32,984 more rows
Next we’ll calculate the cumulative sums by grouping by tumor and model.

Note that `cumsum()` takes an ordered datafame.

``` r
XGB.results %>% 
  group_by(tumor, model) %>%
  mutate(peptides = 1:n(), 
         detected_ligands = cumsum(detected)) %>% 
  ungroup() -> XGB.results

XGB.results
```

    ## # A tibble: 32,994 × 8
    ##    tumor   ligand detected model            score random peptides detected_ligands
    ##    <fct>   <lgl>     <dbl> <chr>            <dbl>  <int>    <int>            <dbl>
    ##  1 M026.X1 TRUE          1 aff_chop_Library  1.00 427085        1                1
    ##  2 M026.X1 FALSE         0 aff_chop_Library  1.00 779842        2                1
    ##  3 M026.X1 TRUE          1 aff_chop_Library  1.00 554996        3                2
    ##  4 M026.X1 FALSE         0 aff_chop_Library  1.00 510839        4                2
    ##  5 M026.X1 TRUE          1 aff_chop_Library  1.00 825699        5                3
    ##  6 M026.X1 TRUE          1 aff_chop_Library  1.00 449160        6                4
    ##  7 M026.X1 FALSE         0 aff_chop_Library  1.00 640497        7                4
    ##  8 M026.X1 FALSE         0 aff_chop_Library  1.00 172707        8                4
    ##  9 M026.X1 FALSE         0 aff_chop_Library  1.00  48269        9                4
    ## 10 M026.X1 FALSE         0 aff_chop_Library  1.00 588754       10                4
    ## # … with 32,984 more rows
…
``` r
model.order <- c("aff_only", "aff_chop_only", "aff_chop_Library", "aff_chop_rna", 
                 "aff_chop_ribo", "aff_chop_rna_ribo", "aff_chop_Library_rna", "aff_chop_Library_ribo",
                 "aff_chop_Library_rna_ribo")

XGB.results %>% 
  mutate(model = as_factor(model),
         model = fct_relevel(model, model.order)) -> XGB.results

XGB.results
```

    ## # A tibble: 32,994 × 8
    ##    tumor   ligand detected model            score random peptides detected_ligands
    ##    <fct>   <lgl>     <dbl> <fct>            <dbl>  <int>    <int>            <dbl>
    ##  1 M026.X1 TRUE          1 aff_chop_Library  1.00 427085        1                1
    ##  2 M026.X1 FALSE         0 aff_chop_Library  1.00 779842        2                1
    ##  3 M026.X1 TRUE          1 aff_chop_Library  1.00 554996        3                2
    ##  4 M026.X1 FALSE         0 aff_chop_Library  1.00 510839        4                2
    ##  5 M026.X1 TRUE          1 aff_chop_Library  1.00 825699        5                3
    ##  6 M026.X1 TRUE          1 aff_chop_Library  1.00 449160        6                4
    ##  7 M026.X1 FALSE         0 aff_chop_Library  1.00 640497        7                4
    ##  8 M026.X1 FALSE         0 aff_chop_Library  1.00 172707        8                4
    ##  9 M026.X1 FALSE         0 aff_chop_Library  1.00  48269        9                4
    ## 10 M026.X1 FALSE         0 aff_chop_Library  1.00 588754       10                4
    ## # … with 32,984 more rows
…
