…
Reformat, and plot, highlighting the features that were in the top 20 of
the randomforest models.

``` r
importance.scores %>% 
  left_join(top.important) %>% 
  mutate(classes = replace_na(classes, "none"),
         feature.label = str_remove_all(feature, "UTR5|UTR3|CDS|count|hsa|\\."),
         feature.label = str_replace_all(feature.label, "_", " "),
         feature = reorder(feature, log10.importance)) -> to.plot

to.plot
```

    ## # A tibble: 666 × 6
    ##    feature              Overall log10.importance classes score feature.label    
    ##    <fct>                  <dbl>            <dbl> <chr>   <dbl> <chr>            
    ##  1 affMIN               100               2      none     NA   "affMIN"         
    ##  2 chop                  51.1             1.71   none     NA   "chop"           
    ##  3 Ubiquitination_count  16.4             1.22   count   300   "Ubiquitination "
    ##  4 total_m7G              2.17            0.337  none     NA   "total m7G"      
    ##  5 Acetylation_count      1.57            0.195  count   120.  "Acetylation "   
    ##  6 CTCC_CDS               1.56            0.194  CDS     102.  "CTCC "          
    ##  7 AA_length_CDS          1.29            0.110  none     NA   "AA length "     
    ##  8 total_m1A              1.14            0.0587 none     NA   "total m1A"      
    ##  9 CCTC_CDS               0.752          -0.124  CDS      92.7 "CCTC "          
    ## 10 CTTC_CDS               0.591          -0.229  none     NA   "CTTC "          
    ## # … with 656 more rows
…
